\relax 
\@writefile{toc}{\contentsline {chapter}{Appendices}{114}}
\@writefile{toc}{\contentsline {chapter}{\numberline {A}Articles}{115}}
\@writefile{lof}{\addvspace {10\p@ }}
\@writefile{lot}{\addvspace {10\p@ }}
\newlabel{app:art}{{A}{115}}
\@writefile{toc}{\contentsline {section}{\numberline {A.1}3:1 and 2:2}{115}}
\newlabel{app:31n22}{{A.1}{115}}
\@writefile{toc}{\contentsline {subsection}{\numberline {A.1.1}Batang babae, nakitang patay at may 'di maipaliwanag na mga sugat na gawa raw ng aswang}{115}}
\@writefile{toc}{\contentsline {subsection}{\numberline {A.1.2}1, nasawi, 3, sugatan sa sunog sa Pagadian city}{117}}
\@writefile{toc}{\contentsline {subsection}{\numberline {A.1.3}Sinasabing Chinese fugitive na si Wang Bo, nasa kostudiya pa rin daw ng BI}{118}}
\@writefile{toc}{\contentsline {subsection}{\numberline {A.1.4}Warrant of arrest, inilabas na laban sa EDSA \IeC {\textquoteleft }hulidap\IeC {\textquoteright } cops; ilang suspek, pinaghahanap pa}{120}}
\@writefile{toc}{\contentsline {subsection}{\numberline {A.1.5}3 anggulo, sinisilip ng pulisya na motibo sa pagpatay sa negosyante sa Laguna}{122}}
\@writefile{toc}{\contentsline {subsection}{\numberline {A.1.6}Ronnie Ricketts, nagpiyansa sa kinakaharap na kasong katiwalian}{123}}
\@writefile{toc}{\contentsline {subsection}{\numberline {A.1.7}Makati Mayor Junjun Binay pansamantalang bumaba sa puwesto}{125}}
\@writefile{toc}{\contentsline {subsection}{\numberline {A.1.8}Umano'y pekeng bigas, nakarating na nga ba sa Metro Manila?}{127}}
\@writefile{toc}{\contentsline {subsection}{\numberline {A.1.9}Pagdinig sa kaso ng One Dream scam, aarangkada sa Huwebes}{128}}
\@writefile{toc}{\contentsline {subsection}{\numberline {A.1.10}Higit P4-B \textsc  {\char 13}congressional insertion\textsc  {\char 13} sa 2015 budget, bubusisiin}{130}}
\@writefile{toc}{\contentsline {section}{\numberline {A.2}All Annotators in Disagreement}{131}}
\@writefile{toc}{\contentsline {subsection}{\numberline {A.2.1}Ano ang dapat gawin ng Pilipinas sa girian ng US at China kaugnay ng West PHL Sea?}{131}}
\@writefile{toc}{\contentsline {subsection}{\numberline {A.2.2}Talumpati ni Pangulong Aquino sa decommissioning ng mga miyembro ng MILF at paglalatag ng kanilang mga armas}{134}}
\@writefile{toc}{\contentsline {subsection}{\numberline {A.2.3}19-anyos na pumatay sa kanyang lola at kumain sa puso ng biktima, kinasuhan na}{139}}
\@writefile{toc}{\contentsline {subsection}{\numberline {A.2.4}Mga sundalo ng US, limitado ang galaw habang nasa Subic, Zambales}{140}}
\@writefile{toc}{\contentsline {section}{\numberline {A.3}4 In agreement}{142}}
\newlabel{app:4inag}{{A.3}{142}}
\@writefile{toc}{\contentsline {subsection}{\numberline {A.3.1}Interesado ang DND sa P-3C Orion spy plane ng Japan}{142}}
\@writefile{toc}{\contentsline {subsection}{\numberline {A.3.2}LOOK: Libreng operasyon sa puso ng 17-anyos na Pinoy na isinagawa sa Africa, naging matagumpay}{143}}
\@writefile{toc}{\contentsline {subsection}{\numberline {A.3.3}Si Grace Poe ang magpapasya kung tatakbo sa 2016 polls, ayon kay Susan Roces}{144}}
\@writefile{toc}{\contentsline {subsection}{\numberline {A.3.4}Comelec: Bidding para isaayos ang mga PCOS machine, bigo}{145}}
\@writefile{toc}{\contentsline {section}{\numberline {A.4}All in Agreement}{147}}
\@writefile{toc}{\contentsline {subsection}{\numberline {A.4.1}10-anyos na lalaki, patay matapos mabundol ng tricycle sa Pangasinan}{147}}
\@writefile{toc}{\contentsline {subsection}{\numberline {A.4.2}Mahirap na batang estudyante, nagsauli ng napulot na pera}{149}}
\@writefile{toc}{\contentsline {subsection}{\numberline {A.4.3}Escudero, 'di nagsisisi sa pag-endorso noong kay Binay; pero mayroon daw siyang natutunan}{150}}
\@writefile{toc}{\contentsline {subsection}{\numberline {A.4.4}``Puna ng UN official Rehabilitasyon sa mga lugar na sinalanta ni \textsc  {\char 13}Yolanda,\textsc  {\char 13} mabagal"}{152}}
\@writefile{toc}{\contentsline {subsection}{\numberline {A.4.5}Lagay ng bansa sa pananaw ni VP Binay, malalaman sa Lunes}{155}}
\@writefile{toc}{\contentsline {subsection}{\numberline {A.4.6}``Paningin lang ang nawala, 'di ang pangarap Grade 6 na bulag, pursigidong makatapos ng pag-aaral"}{156}}
\@setckpt{appendix_A}{
\setcounter{page}{157}
\setcounter{equation}{0}
\setcounter{enumi}{4}
\setcounter{enumii}{0}
\setcounter{enumiii}{0}
\setcounter{enumiv}{0}
\setcounter{footnote}{0}
\setcounter{mpfootnote}{0}
\setcounter{part}{0}
\setcounter{chapter}{6}
\setcounter{section}{4}
\setcounter{subsection}{6}
\setcounter{subsubsection}{0}
\setcounter{paragraph}{0}
\setcounter{subparagraph}{0}
\setcounter{figure}{0}
\setcounter{table}{0}
\setcounter{parentequation}{0}
\setcounter{BibCnt}{2}
\setcounter{dirtytalk@qdepth}{0}
\setcounter{@pps}{1}
\setcounter{@ppsavesec}{6}
\setcounter{@ppsaveapp}{1}
\setcounter{AM@survey}{0}
\setcounter{LT@tables}{3}
\setcounter{LT@chunks}{1}
\setcounter{maskedRefs}{0}
}
