\relax 
\citation{liu2010sentiment}
\citation{liu2010sentiment}
\citation{liu2012sentiment}
\citation{liu2012sentiment}
\citation{liu2010sentiment}
\@writefile{toc}{\contentsline {chapter}{\numberline {1}Research Description}{1}}
\@writefile{lof}{\addvspace {10\p@ }}
\@writefile{lot}{\addvspace {10\p@ }}
\newlabel{sec:researchdesc}{{1}{1}}
\@writefile{toc}{\contentsline {section}{\numberline {1.1}Overview of the Current State of Technology}{1}}
\newlabel{sec:overview}{{1.1}{1}}
\citation{bakliwal2012mining}
\citation{bakliwal2012mining}
\citation{pak2010twitter}
\citation{pak2010twitter}
\citation{polanyi2006contextual}
\citation{polanyi2006contextual}
\citation{nasukawa2003sentiment}
\citation{nasukawa2003sentiment}
\citation{ghiassi2013twitter}
\citation{ghiassi2013twitter}
\citation{le2010empirical}
\citation{le2010empirical}
\citation{gamallo2014citius}
\citation{gamallo2014citius}
\citation{patacsil2015}
\citation{patacsil2015}
\citation{das2007yahoo}
\citation{das2007yahoo}
\citation{cagampan2015}
\citation{cagampan2015}
\citation{ghiassi2013twitter}
\citation{ghiassi2013twitter}
\citation{pak2010twitter}
\citation{pak2010twitter}
\citation{le2010empirical}
\citation{le2010empirical}
\citation{patacsil2015}
\citation{patacsil2015}
\citation{patacsil2015}
\citation{patacsil2015}
\citation{cagampan2015}
\citation{cagampan2015}
\citation{patacsil2015}
\citation{cagampan2015}
\citation{cagampan2015}
\@writefile{toc}{\contentsline {section}{\numberline {1.2}Research Objectives}{4}}
\@writefile{toc}{\contentsline {subsection}{\numberline {1.2.1}General Objectives}{4}}
\@writefile{toc}{\contentsline {subsection}{\numberline {1.2.2}Specific Objectives}{4}}
\@writefile{toc}{\contentsline {section}{\numberline {1.3}Scope and Limitations of the Research}{4}}
\citation{patacsil2015}
\citation{cagampan2015}
\citation{cagampan2015}
\citation{goldberg1988genetic}
\citation{cagampan2015}
\citation{polanyi2006contextual}
\citation{nasukawa2003sentiment}
\citation{taboada2011lexicon}
\@writefile{toc}{\contentsline {section}{\numberline {1.4}Significance of the Research}{6}}
\@writefile{toc}{\contentsline {section}{\numberline {1.5}Research Methodology}{6}}
\citation{balahur2009rethinking}
\citation{balahur2009rethinking}
\citation{balahur2009rethinking}
\@writefile{lof}{\contentsline {figure}{\numberline {1.1}{\ignorespaces Flowchart of the Methodology}}{7}}
\newlabel{fig:methDiag}{{1.1}{7}}
\citation{das2007yahoo}
\citation{das2007yahoo}
\@writefile{toc}{\contentsline {section}{\numberline {1.6}Calendar of Activities}{10}}
\@writefile{lot}{\contentsline {table}{\numberline {1.1}{\ignorespaces Gantt Chart}}{10}}
\newlabel{my-label}{{1.1}{10}}
\@setckpt{chapter_1}{
\setcounter{page}{11}
\setcounter{equation}{0}
\setcounter{enumi}{7}
\setcounter{enumii}{0}
\setcounter{enumiii}{0}
\setcounter{enumiv}{0}
\setcounter{footnote}{0}
\setcounter{mpfootnote}{0}
\setcounter{part}{0}
\setcounter{chapter}{1}
\setcounter{section}{6}
\setcounter{subsection}{0}
\setcounter{subsubsection}{0}
\setcounter{paragraph}{0}
\setcounter{subparagraph}{0}
\setcounter{figure}{1}
\setcounter{table}{1}
\setcounter{parentequation}{0}
\setcounter{BibCnt}{1}
\setcounter{dirtytalk@qdepth}{0}
\setcounter{@pps}{0}
\setcounter{@ppsavesec}{0}
\setcounter{@ppsaveapp}{0}
\setcounter{AM@survey}{0}
\setcounter{LT@tables}{0}
\setcounter{LT@chunks}{0}
\setcounter{maskedRefs}{0}
}
