\relax 
\citation{pang2002thumbs}
\citation{turney2002thumbs}
\citation{wiebe1999development}
\citation{liu2012sentiment}
\citation{liu2012sentiment}
\@writefile{toc}{\contentsline {chapter}{\numberline {3}Research Methodology}{26}}
\@writefile{lof}{\addvspace {10\p@ }}
\@writefile{lot}{\addvspace {10\p@ }}
\@writefile{toc}{\contentsline {section}{\numberline {3.1}Sentiment Analysis}{26}}
\citation{liu2012sentiment}
\citation{wiebe1999development}
\citation{wiebe2000learning}
\citation{liu2012sentiment}
\citation{jiang2011target}
\citation{ding2008holistic}
\citation{hu2004mining}
\citation{liu2006web}
\citation{liu2011web}
\citation{jindal2006mining}
\citation{liu2012sentiment}
\citation{liu2006web}
\citation{liu2011web}
\citation{liu2012sentiment}
\citation{liu2010sentiment}
\citation{langley2011changing}
\citation{cagampan2015}
\citation{cagampan2015}
\citation{nielsen2011new}
\citation{wiebe2005annotating}
\citation{wiebe2005annotating}
\@writefile{toc}{\contentsline {subsection}{\numberline {3.1.1}Analyzing Filipino Editorials through Information Extraction and Sentiment Analysis}{28}}
\citation{balahur2009rethinking}
\citation{balahur2009rethinking}
\citation{balahur2009rethinking}
\citation{balahur2009rethinking}
\@writefile{toc}{\contentsline {section}{\numberline {3.2}Data Annotation}{30}}
\citation{balahur2009rethinking}
\citation{schapirecos}
\citation{fano1961transmission}
\@writefile{toc}{\contentsline {section}{\numberline {3.3}Machine Learning-based Classifiers}{32}}
\@writefile{toc}{\contentsline {subsection}{\numberline {3.3.1}Pointwise Mutual Information }{32}}
\citation{church1990word}
\citation{church1990word}
\citation{church1990word}
\citation{bouma2009normalized}
\citation{leung2007}
\citation{leung2007}
\citation{bonev2012opinum}
\citation{pang2002thumbs}
\citation{cortes1995support}
\citation{cortes1995support}
\citation{pang2002thumbs}
\citation{pang2002thumbs}
\citation{bosch2013}
\citation{pang2002thumbs}
\citation{yourganov2014predictive}
\citation{yourganov2014predictive}
\@writefile{toc}{\contentsline {subsection}{\numberline {3.3.2}Na\"{\i }ve Bayes }{34}}
\@writefile{toc}{\contentsline {subsection}{\numberline {3.3.3}Support Vector Machine }{35}}
\citation{quinlan1986induction}
\citation{bird2009natural}
\citation{ghiassi2013twitter}
\@writefile{toc}{\contentsline {subsection}{\numberline {3.3.4}Decision Trees}{36}}
\citation{mikolov2014}
\@writefile{toc}{\contentsline {subsection}{\numberline {3.3.5}Artificial Neural Network }{37}}
\citation{jain1996artificial}
\@writefile{lof}{\contentsline {figure}{\numberline {3.1}{\ignorespaces A visualization of a linear classifier.}}{38}}
\newlabel{fig:ann1}{{3.1}{38}}
\@writefile{lof}{\contentsline {figure}{\numberline {3.2}{\ignorespaces A visualization of a non-linear classifier.}}{39}}
\newlabel{fig:ann2}{{3.2}{39}}
\@writefile{lof}{\contentsline {figure}{\numberline {3.3}{\ignorespaces A Visualization the Artificial Neural Networks' structure.}}{39}}
\newlabel{fig:ann3}{{3.3}{39}}
\citation{tan2008empirical}
\citation{tan2008empirical}
\citation{pang2002thumbs}
\@writefile{toc}{\contentsline {subsection}{\numberline {3.3.6}K-Nearest Neighbor }{40}}
\@writefile{toc}{\contentsline {subsection}{\numberline {3.3.7}Maximum Entropy }{40}}
\citation{berger1996maximum}
\citation{le2010empirical}
\citation{le2010empirical}
\citation{de2011natural}
\citation{bosch2013}
\citation{ghiassi2013twitter}
\citation{ghiassi2013twitter}
\@writefile{toc}{\contentsline {section}{\numberline {3.4}Features used by the Classifiers}{42}}
\@writefile{toc}{\contentsline {subsection}{\numberline {3.4.1}N-grams}{42}}
\citation{liu2012sentiment}
\citation{bakliwal2012mining}
\@writefile{toc}{\contentsline {subsection}{\numberline {3.4.2}Terms and their Frequency}{43}}
\@writefile{toc}{\contentsline {subsubsection}{Term Frequency Model }{43}}
\citation{luhn1957statistical}
\citation{tokunaga1994text}
\citation{sparck1972statistical}
\citation{tokunaga1994text}
\@writefile{toc}{\contentsline {subsubsection}{Term Frequency \IeC {\textendash } Inverse Document Frequency}{44}}
\citation{salton1989automatic}
\citation{salton1989automatic}
\citation{tokunaga1994text}
\citation{cagampan2015}
\citation{cagampan2015}
\citation{liu2012sentiment}
\citation{liu2012sentiment}
\citation{pajkossy2013studying}
\citation{pajkossy2013studying}
\citation{das2007yahoo}
\citation{das2007yahoo}
\citation{das2007yahoo}
\citation{nasukawa2003sentiment}
\citation{nasukawa2003sentiment}
\@writefile{toc}{\contentsline {subsection}{\numberline {3.4.3}Part of Speech}{45}}
\citation{nasukawa2003sentiment}
\citation{kotouse}
\citation{pak2010twitter}
\citation{pak2010twitter}
\@writefile{lof}{\contentsline {figure}{\numberline {3.4}{\ignorespaces Shows how the POS tagger breaks down the sentence into its individual components per word}}{46}}
\newlabel{fig:pos1}{{3.4}{46}}
\citation{bosch2013}
\citation{pak2010twitter}
\citation{cagampan2015}
\@writefile{toc}{\contentsline {subsection}{\numberline {3.4.4}Sentence Patterns}{47}}
\@writefile{lof}{\contentsline {figure}{\numberline {3.5}{\ignorespaces A sentence pattern of the statement ``John told the little boy he won the prize"}}{47}}
\newlabel{fig:sp1}{{3.5}{47}}
\@writefile{toc}{\contentsline {subsection}{\numberline {3.4.5}Bag of Words}{47}}
\citation{liu2012sentiment}
\citation{miller1995wordnet}
\citation{cagampan2015}
\citation{cagampan2015}
\citation{esuli2006sentiwordnet}
\citation{saggionalpha2010interpreting}
\@writefile{toc}{\contentsline {subsection}{\numberline {3.4.6}Lexical Resources}{48}}
\@writefile{toc}{\contentsline {subsubsection}{AFINN}{48}}
\citation{taboada2011lexicon}
\citation{halliday2014introduction}
\@writefile{toc}{\contentsline {subsubsection}{SentiWordNet}{49}}
\@writefile{lof}{\contentsline {figure}{\numberline {3.6}{\ignorespaces A SentiWordNet fragment}}{49}}
\newlabel{fig:swn1}{{3.6}{49}}
\citation{liu2012sentiment}
\citation{bosch2013}
\@writefile{toc}{\contentsline {subsubsection}{Semantic Orientation (SO-CAL) Calculator Lexicon }{50}}
\@writefile{toc}{\contentsline {subsection}{\numberline {3.4.7}Valence Shifters }{50}}
\newlabel{so-cal-eng}{{3.4.7}{50}}
\citation{polanyi2006contextual}
\citation{taboada2011lexicon}
\citation{taboada2011lexicon}
\citation{nasukawa2003sentiment}
\citation{taboada2011lexicon}
\citation{polanyi2006contextual}
\citation{polanyi2006contextual}
\citation{kennedy2006sentiment}
\citation{kennedy2006sentiment}
\citation{kennedy2006sentiment}
\citation{polanyi2006contextual}
\citation{polanyi2006contextual}
\citation{kennedy2006sentiment}
\citation{kennedy2006sentiment}
\newlabel{eq1}{{3.16}{51}}
\@writefile{toc}{\contentsline {subsubsection}{Negations }{51}}
\@writefile{toc}{\contentsline {subsubsection}{Intensifiers and Diminishers}{51}}
\citation{taboada2011lexicon}
\citation{taboada2011lexicon}
\citation{taboada2011lexicon}
\citation{li2007sentiment}
\@writefile{toc}{\contentsline {subsubsection}{Irrealis Markers}{52}}
\citation{li2007sentiment}
\citation{tulyakov2008review}
\citation{dvzeroski2004combining}
\@writefile{toc}{\contentsline {section}{\numberline {3.5}Classifier Combination}{53}}
\@writefile{toc}{\contentsline {subsection}{\numberline {3.5.1}First Step}{53}}
\@writefile{toc}{\contentsline {subsubsection}{Boosting}{53}}
\@writefile{toc}{\contentsline {subsubsection}{Stacking}{53}}
\citation{zhou2002ensembling}
\citation{zhou2002ensembling}
\citation{aksela2003comparison}
\citation{ruta2005classifier}
\citation{kittler1998combining}
\citation{kittler1998combining}
\citation{li2007sentiment}
\@writefile{toc}{\contentsline {subsection}{\numberline {3.5.2}Second Step}{54}}
\@writefile{toc}{\contentsline {subsubsection}{N-best}{54}}
\@writefile{toc}{\contentsline {subsection}{\numberline {3.5.3}Last Step}{54}}
\citation{kittler1998combining}
\citation{kittler1998combining}
\citation{li2007sentiment}
\@writefile{toc}{\contentsline {subsubsection}{Majority Voting Rule}{55}}
\@writefile{toc}{\contentsline {subsubsection}{Kittler's Theoretical Framework}{55}}
\citation{balage2013nilc}
\citation{balage2013nilc}
\citation{mike2010sentiment}
\citation{li2007sentiment}
\citation{li2007sentiment}
\citation{li2007sentiment}
\citation{kittler1998combining}
\citation{kittler1998combining}
\citation{omar2013ensemble}
\citation{omar2013ensemble}
\citation{omar2013ensemble}
\citation{krallinger2015chemdner}
\@writefile{toc}{\contentsline {section}{\numberline {3.6}Evaluation Techniques}{58}}
\@writefile{toc}{\contentsline {subsection}{\numberline {3.6.1}Fundamental numbers}{58}}
\citation{gritzalis2015nereus}
\citation{gritzalis2015nereus}
\citation{confMat2014}
\@writefile{toc}{\contentsline {subsection}{\numberline {3.6.2}Precision}{59}}
\@writefile{toc}{\contentsline {subsection}{\numberline {3.6.3}Recall}{59}}
\@writefile{toc}{\contentsline {subsection}{\numberline {3.6.4}F-score}{59}}
\citation{gritzalis2015nereus}
\citation{c}
\@writefile{toc}{\contentsline {subsection}{\numberline {3.6.5}Accuracy}{60}}
\@writefile{toc}{\contentsline {subsection}{\numberline {3.6.6}Fleiss Kappa}{60}}
\@writefile{lof}{\contentsline {figure}{\numberline {3.7}{\ignorespaces Degrees of Agreement}}{61}}
\newlabel{fig:kappa1}{{3.7}{61}}
\@setckpt{chapter_3}{
\setcounter{page}{62}
\setcounter{equation}{22}
\setcounter{enumi}{9}
\setcounter{enumii}{0}
\setcounter{enumiii}{0}
\setcounter{enumiv}{0}
\setcounter{footnote}{0}
\setcounter{mpfootnote}{0}
\setcounter{part}{0}
\setcounter{chapter}{3}
\setcounter{section}{6}
\setcounter{subsection}{6}
\setcounter{subsubsection}{0}
\setcounter{paragraph}{0}
\setcounter{subparagraph}{0}
\setcounter{figure}{7}
\setcounter{table}{0}
\setcounter{parentequation}{0}
\setcounter{BibCnt}{2}
\setcounter{dirtytalk@qdepth}{0}
\setcounter{@pps}{0}
\setcounter{@ppsavesec}{0}
\setcounter{@ppsaveapp}{0}
\setcounter{AM@survey}{0}
\setcounter{LT@tables}{0}
\setcounter{LT@chunks}{0}
\setcounter{maskedRefs}{0}
}
