\relax 
\citation{cagampan2015}
\citation{cagampan2015}
\citation{cagampan2015}
\@writefile{toc}{\contentsline {chapter}{\numberline {4}Research Framework}{62}}
\@writefile{lof}{\addvspace {10\p@ }}
\@writefile{lot}{\addvspace {10\p@ }}
\@writefile{toc}{\contentsline {section}{\numberline {4.1}Development of the Corpus and Lexical Resources}{62}}
\@writefile{toc}{\contentsline {subsection}{\numberline {4.1.1}Gathering the New Corpus and Annotation}{62}}
\@writefile{lof}{\contentsline {figure}{\numberline {4.1}{\ignorespaces The modules under the Training Phase (left) and the modules under the Execution Phase (right).}}{63}}
\newlabel{fig:sysarchi}{{4.1}{63}}
\citation{balahur2009rethinking}
\citation{balahur2009rethinking}
\citation{taboada2011lexicon}
\citation{taboada2011lexicon}
\citation{taboada2011lexicon}
\citation{taboada2011lexicon}
\@writefile{toc}{\contentsline {subsection}{\numberline {4.1.2}Pre-processing and Filtering of the Corpus}{67}}
\@writefile{toc}{\contentsline {subsection}{\numberline {4.1.3}Creation of the Lexical Resources}{67}}
\@writefile{lof}{\contentsline {figure}{\numberline {4.2}{\ignorespaces The adjectives are within the range of [-5, +5]}}{68}}
\newlabel{fig:socal}{{4.2}{68}}
\@writefile{lot}{\contentsline {table}{\numberline {4.1}{\ignorespaces Table of Intensifier}}{69}}
\newlabel{tab:intensifiers}{{4.1}{69}}
\citation{ozgur2005text}
\@writefile{lof}{\contentsline {figure}{\numberline {4.3}{\ignorespaces The following example shows the use of the translated SO-CAL lexicon in order to determine a sentence\IeC {\textquoteright }s polarity. }}{70}}
\newlabel{fig:socal_lex}{{4.3}{70}}
\@writefile{toc}{\contentsline {section}{\numberline {4.2}Feature Extraction}{70}}
\citation{nagao1994new}
\citation{nagao1994new}
\citation{toutanova2003feature}
\citation{rabo2004tpost}
\citation{rabo2004tpost}
\@writefile{toc}{\contentsline {section}{\numberline {4.3}Feature Selection}{72}}
\@writefile{lot}{\contentsline {table}{\numberline {4.2}{\ignorespaces Features Selected}}{74}}
\newlabel{my-label}{{4.2}{74}}
\citation{goldberg1988genetic}
\@writefile{lot}{\contentsline {table}{\numberline {4.3}{\ignorespaces Results produced by the Na\"{\i }ve Bayes classifier using a reduced feature set.}}{76}}
\newlabel{nb-results}{{4.3}{76}}
\@writefile{lot}{\contentsline {table}{\numberline {4.4}{\ignorespaces Results produced by the Maximum Entropy classifier using a reduced feature set.}}{76}}
\newlabel{maxent-results}{{4.4}{76}}
\@writefile{lot}{\contentsline {table}{\numberline {4.5}{\ignorespaces Results produced by the K-Nearest Neighbor classifier using a reduced feature set.}}{76}}
\newlabel{knn-results}{{4.5}{76}}
\citation{taboada2011lexicon}
\citation{taboada2011lexicon}
\citation{bakliwal2012mining}
\citation{bakliwal2012mining}
\@writefile{lot}{\contentsline {table}{\numberline {4.6}{\ignorespaces Results produced by the Artificial Neural Network classifier using a reduced feature set.}}{77}}
\newlabel{ann-results}{{4.6}{77}}
\@writefile{lot}{\contentsline {table}{\numberline {4.7}{\ignorespaces Results produced by the Support Vector Machine classifier using a reduced feature set.}}{77}}
\newlabel{svm-results}{{4.7}{77}}
\@writefile{lot}{\contentsline {table}{\numberline {4.8}{\ignorespaces A summary of the number of attributes before and after further feature selection}}{77}}
\newlabel{my-label}{{4.8}{77}}
\@writefile{toc}{\contentsline {section}{\numberline {4.4}Classifiers}{77}}
\@writefile{toc}{\contentsline {subsection}{\numberline {4.4.1}Rule-based Classifier}{77}}
\citation{das2007yahoo}
\citation{das2007yahoo}
\citation{das2007yahoo}
\citation{das2007yahoo}
\citation{tulyakov2008review}
\@writefile{toc}{\contentsline {subsection}{\numberline {4.4.2}Machine Learning-Based Classifiers}{79}}
\@writefile{toc}{\contentsline {subsection}{\numberline {4.4.3}Result Aggregation}{79}}
\@setckpt{chapter_4}{
\setcounter{page}{81}
\setcounter{equation}{0}
\setcounter{enumi}{5}
\setcounter{enumii}{0}
\setcounter{enumiii}{0}
\setcounter{enumiv}{0}
\setcounter{footnote}{0}
\setcounter{mpfootnote}{0}
\setcounter{part}{0}
\setcounter{chapter}{4}
\setcounter{section}{4}
\setcounter{subsection}{3}
\setcounter{subsubsection}{0}
\setcounter{paragraph}{0}
\setcounter{subparagraph}{0}
\setcounter{figure}{3}
\setcounter{table}{8}
\setcounter{parentequation}{0}
\setcounter{BibCnt}{2}
\setcounter{dirtytalk@qdepth}{0}
\setcounter{@pps}{0}
\setcounter{@ppsavesec}{0}
\setcounter{@ppsaveapp}{0}
\setcounter{AM@survey}{0}
\setcounter{LT@tables}{0}
\setcounter{LT@chunks}{0}
\setcounter{maskedRefs}{0}
}
