\relax 
\@writefile{toc}{\contentsline {chapter}{\numberline {5}Results and Analysis}{81}}
\@writefile{lof}{\addvspace {10\p@ }}
\@writefile{lot}{\addvspace {10\p@ }}
\@writefile{toc}{\contentsline {section}{\numberline {5.1}Annotation}{81}}
\@writefile{lot}{\contentsline {table}{\numberline {5.1}{\ignorespaces Kappa results of the annotators with the validator.}}{81}}
\@writefile{lot}{\contentsline {table}{\numberline {5.2}{\ignorespaces Number of annotations made by each annotator.}}{82}}
\newlabel{tab:ann-stats}{{5.2}{82}}
\gdef \LT@i {\LT@entry 
    {1}{45.76076pt}\LT@entry 
    {1}{373.74998pt}}
\@writefile{lot}{\contentsline {table}{\numberline {5.3}{$^{\ast }$All articles included in the table are news reports under the headlines category.}}{85}}
\newlabel{tab:headlines}{{5.3}{85}}
\gdef \LT@ii {\LT@entry 
    {1}{39.88582pt}\LT@entry 
    {1}{373.74998pt}}
\@writefile{lot}{\contentsline {table}{\numberline {5.4}{$^{\ast }$Unless otherwise specified, all articles included in the table are news reports under the headlines category.}}{87}}
\newlabel{tab:sample-arts}{{5.4}{87}}
\gdef \LT@iii {\LT@entry 
    {1}{45.76076pt}\LT@entry 
    {1}{373.74998pt}}
\@writefile{lot}{\contentsline {table}{\numberline {5.5}{All articles included in the table are news reports under the headlines category.}}{90}}
\@writefile{toc}{\contentsline {section}{\numberline {5.2}Baseline Results}{90}}
\@writefile{lot}{\contentsline {table}{\numberline {5.6}{\ignorespaces Results of all classifiers and aggregators using the training set as test set.}}{91}}
\newlabel{tab:baseline}{{5.6}{91}}
\@writefile{toc}{\contentsline {section}{\numberline {5.3}Actual Test Results}{93}}
\@writefile{toc}{\contentsline {subsection}{\numberline {5.3.1}Rule-based Classifier}{93}}
\@writefile{lot}{\contentsline {table}{\numberline {5.7}{\ignorespaces Results of all rule-based classifiers on the data set.}}{93}}
\newlabel{tab:randd}{{5.7}{93}}
\@writefile{toc}{\contentsline {subsection}{\numberline {5.3.2}Machine Learning-Based Classifiers}{94}}
\@writefile{lot}{\contentsline {table}{\numberline {5.8}{\ignorespaces Results of all machine learning-based classifiers using a reduced feature set.}}{95}}
\newlabel{tab:all}{{5.8}{95}}
\@writefile{toc}{\contentsline {subsection}{\numberline {5.3.3}Result Aggregation}{99}}
\@writefile{lot}{\contentsline {table}{\numberline {5.9}{\ignorespaces Results of all aggregators on the data set.}}{99}}
\newlabel{tab:maj-res}{{5.9}{99}}
\@writefile{toc}{\contentsline {subsection}{\numberline {5.3.4}Comparison to Cagampan's Framework}{101}}
\@writefile{lot}{\contentsline {table}{\numberline {5.10}{\ignorespaces Results of rule-based classifiers using the test set of Cagampan.}}{102}}
\newlabel{my-label}{{5.10}{102}}
\@writefile{lot}{\contentsline {table}{\numberline {5.11}{\ignorespaces Selected features and feature set combinations for all machine-learning based classifiers.}}{102}}
\newlabel{tab:selected-berna}{{5.11}{102}}
\@writefile{lot}{\contentsline {table}{\numberline {5.12}{\ignorespaces Results of machine learning-based classifiers using the test set of Cagampan. }}{103}}
\newlabel{my-label}{{5.12}{103}}
\@writefile{lot}{\contentsline {table}{\numberline {5.13}{\ignorespaces Number of attributes in the proponent\IeC {\textquoteright }s feature set versus the number of attributes Cagampan extracted.}}{103}}
\newlabel{my-label}{{5.13}{103}}
\@writefile{lot}{\contentsline {table}{\numberline {5.14}{\ignorespaces Results of the aggregating classifiers using the test set of Cagampan. }}{104}}
\newlabel{tab:mc-berna}{{5.14}{104}}
\@setckpt{chapter_5}{
\setcounter{page}{105}
\setcounter{equation}{0}
\setcounter{enumi}{3}
\setcounter{enumii}{0}
\setcounter{enumiii}{0}
\setcounter{enumiv}{0}
\setcounter{footnote}{0}
\setcounter{mpfootnote}{0}
\setcounter{part}{0}
\setcounter{chapter}{5}
\setcounter{section}{3}
\setcounter{subsection}{4}
\setcounter{subsubsection}{0}
\setcounter{paragraph}{0}
\setcounter{subparagraph}{0}
\setcounter{figure}{0}
\setcounter{table}{14}
\setcounter{parentequation}{0}
\setcounter{BibCnt}{2}
\setcounter{dirtytalk@qdepth}{0}
\setcounter{@pps}{0}
\setcounter{@ppsavesec}{0}
\setcounter{@ppsaveapp}{0}
\setcounter{AM@survey}{0}
\setcounter{LT@tables}{3}
\setcounter{LT@chunks}{1}
\setcounter{maskedRefs}{0}
}
