\relax 
\@writefile{toc}{\contentsline {chapter}{\numberline {6}Conclusion and Recommendations}{105}}
\@writefile{lof}{\addvspace {10\p@ }}
\@writefile{lot}{\addvspace {10\p@ }}
\@writefile{toc}{\contentsline {section}{\numberline {6.1}Conclusion}{105}}
\@writefile{lot}{\contentsline {table}{\numberline {6.1}{\ignorespaces Results of all classifiers and aggregators using the test set of Cagampan.}}{108}}
\newlabel{my-label}{{6.1}{108}}
\@writefile{toc}{\contentsline {section}{\numberline {6.2}Recommendations}{111}}
\@setckpt{chapter_6}{
\setcounter{page}{114}
\setcounter{equation}{0}
\setcounter{enumi}{4}
\setcounter{enumii}{0}
\setcounter{enumiii}{0}
\setcounter{enumiv}{0}
\setcounter{footnote}{0}
\setcounter{mpfootnote}{0}
\setcounter{part}{0}
\setcounter{chapter}{6}
\setcounter{section}{2}
\setcounter{subsection}{0}
\setcounter{subsubsection}{0}
\setcounter{paragraph}{0}
\setcounter{subparagraph}{0}
\setcounter{figure}{0}
\setcounter{table}{1}
\setcounter{parentequation}{0}
\setcounter{BibCnt}{2}
\setcounter{dirtytalk@qdepth}{0}
\setcounter{@pps}{0}
\setcounter{@ppsavesec}{0}
\setcounter{@ppsaveapp}{0}
\setcounter{AM@survey}{0}
\setcounter{LT@tables}{3}
\setcounter{LT@chunks}{1}
\setcounter{maskedRefs}{0}
}
