\relax 
\citation{bakliwal2012mining}
\citation{bakliwal2012mining}
\citation{pak2010twitter}
\citation{pak2010twitter}
\@writefile{toc}{\contentsline {chapter}{\numberline {2}Review of Related Literature}{11}}
\@writefile{lof}{\addvspace {10\p@ }}
\@writefile{lot}{\addvspace {10\p@ }}
\newlabel{sec:relatedlit}{{2}{11}}
\@writefile{toc}{\contentsline {section}{\numberline {2.1}Rule Based Methods}{11}}
\citation{taboada2011lexicon}
\citation{taboada2011lexicon}
\citation{taboada2011lexicon}
\citation{polanyi2006contextual}
\citation{polanyi2006contextual}
\citation{patacsil2015}
\citation{patacsil2015}
\citation{zagibalov2008automatic}
\citation{zagibalov2008automatic}
\@writefile{toc}{\contentsline {section}{\numberline {2.2}Machine Learning}{13}}
\@writefile{toc}{\contentsline {subsection}{\numberline {2.2.1}Na\"{\i }ve Bayes}{13}}
\citation{gamallo-garcia2014}
\citation{gamallo-garcia2014}
\citation{gamallo-garcia2014}
\citation{pak2010twitter}
\citation{pak2010twitter}
\citation{gamallo-garcia2014}
\citation{ghiassi2013twitter}
\citation{ghiassi2013twitter}
\@writefile{toc}{\contentsline {subsection}{\numberline {2.2.2}Neural Network}{15}}
\citation{le2010empirical}
\citation{le2010empirical}
\citation{engstrom}
\@writefile{toc}{\contentsline {subsection}{\numberline {2.2.3}Maximum Entropy}{16}}
\citation{das2007yahoo}
\citation{das2007yahoo}
\citation{balage2013nilc}
\citation{balage2013nilc}
\citation{balage2013nilc}
\citation{balage2013nilc}
\@writefile{toc}{\contentsline {subsection}{\numberline {2.2.4}Multi-classifier Model}{17}}
\citation{li2007sentiment}
\citation{li2007sentiment}
\citation{ruta2005classifier}
\citation{kittler1998combining}
\citation{kittler1998combining}
\citation{li2007sentiment}
\citation{li2007sentiment}
\citation{cagampan2015}
\citation{cagampan2015}
\@writefile{toc}{\contentsline {section}{\numberline {2.3}Rule-Based and Machine Learning}{18}}
\citation{nasukawa2003sentiment}
\citation{nasukawa2003sentiment}
\@writefile{lot}{\contentsline {table}{\numberline {2.1}{\ignorespaces Summary of the studies utilizing machine learning based methods 1}}{21}}
\newlabel{my-label}{{2.1}{21}}
\@writefile{lot}{\contentsline {table}{\numberline {2.2}{\ignorespaces Summary of the studies utilizing machine learning based methods 2}}{22}}
\newlabel{my-label}{{2.2}{22}}
\@writefile{lot}{\contentsline {table}{\numberline {2.3}{\ignorespaces Summary of the studies utilizing rule based methods}}{23}}
\newlabel{my-label}{{2.3}{23}}
\@writefile{lot}{\contentsline {table}{\numberline {2.4}{\ignorespaces Summary of the studies utilizing a hybrid approach}}{24}}
\newlabel{my-label}{{2.4}{24}}
\@writefile{lot}{\contentsline {table}{\numberline {2.5}{\ignorespaces Summary of the studies utilizing a Multi classifier}}{25}}
\newlabel{my-label}{{2.5}{25}}
\@setckpt{chapter_2}{
\setcounter{page}{26}
\setcounter{equation}{0}
\setcounter{enumi}{7}
\setcounter{enumii}{0}
\setcounter{enumiii}{0}
\setcounter{enumiv}{0}
\setcounter{footnote}{0}
\setcounter{mpfootnote}{0}
\setcounter{part}{0}
\setcounter{chapter}{2}
\setcounter{section}{3}
\setcounter{subsection}{0}
\setcounter{subsubsection}{0}
\setcounter{paragraph}{0}
\setcounter{subparagraph}{0}
\setcounter{figure}{0}
\setcounter{table}{5}
\setcounter{parentequation}{0}
\setcounter{BibCnt}{2}
\setcounter{dirtytalk@qdepth}{0}
\setcounter{@pps}{0}
\setcounter{@ppsavesec}{0}
\setcounter{@ppsaveapp}{0}
\setcounter{AM@survey}{0}
\setcounter{LT@tables}{0}
\setcounter{LT@chunks}{0}
\setcounter{maskedRefs}{0}
}
