\relax 
\bibstyle{apacite}
\@input{abstract.aux}
\@input{chapter_1.aux}
\@input{chapter_2.aux}
\@input{chapter_3.aux}
\@input{chapter_4.aux}
\@input{chapter_5.aux}
\@input{chapter_6.aux}
\@input{appendix_A.aux}
\bibdata{myreferences}
\bibcite{aksela2003comparison}{\citeauthoryear {Aksela}{Aksela}{{\APACyear {2003}}}}
\APACbibcite{aksela2003comparison}{\citeauthoryear {Aksela}{Aksela}{{\APACyear {2003}}}}
\bibcite{bakliwal2012mining}{\citeauthoryear {Bakliwal\ \BOthers {.}}{Bakliwal\ \BOthers {.}}{{\APACyear {2012}}}}
\APACbibcite{bakliwal2012mining}{\citeauthoryear {Bakliwal\ \BOthers {.}}{Bakliwal\ \BOthers {.}}{{\APACyear {2012}}}}
\bibcite{balage2013nilc}{\citeauthoryear {Balage\nobreakspace  {}Filho\ \BBA{} Pardo}{Balage\nobreakspace  {}Filho\ \BBA{} Pardo}{{\APACyear {2013}}}}
\APACbibcite{balage2013nilc}{\citeauthoryear {Balage\nobreakspace  {}Filho\ \BBA{} Pardo}{Balage\nobreakspace  {}Filho\ \BBA{} Pardo}{{\APACyear {2013}}}}
\bibcite{balahur2009rethinking}{\citeauthoryear {Balahur\ \BBA{} Steinberger}{Balahur\ \BBA{} Steinberger}{{\APACyear {2009}}}}
\APACbibcite{balahur2009rethinking}{\citeauthoryear {Balahur\ \BBA{} Steinberger}{Balahur\ \BBA{} Steinberger}{{\APACyear {2009}}}}
\bibcite{berger1996maximum}{\citeauthoryear {Berger, Pietra,{}\ \BBA{} Pietra}{Berger\ \BOthers {.}}{{\APACyear {1996}}}}
\APACbibcite{berger1996maximum}{\citeauthoryear {Berger, Pietra,{}\ \BBA{} Pietra}{Berger\ \BOthers {.}}{{\APACyear {1996}}}}
\bibcite{bird2009natural}{\citeauthoryear {Bird, Klein,{}\ \BBA{} Loper}{Bird\ \BOthers {.}}{{\APACyear {2009}}}}
\APACbibcite{bird2009natural}{\citeauthoryear {Bird, Klein,{}\ \BBA{} Loper}{Bird\ \BOthers {.}}{{\APACyear {2009}}}}
\bibcite{bonev2012opinum}{\citeauthoryear {Bonev, Ram{\'\i }rez-S{\'a}nchez,{}\ \BBA{} Rojas}{Bonev\ \BOthers {.}}{{\APACyear {2012}}}}
\APACbibcite{bonev2012opinum}{\citeauthoryear {Bonev, Ram{\'\i }rez-S{\'a}nchez,{}\ \BBA{} Rojas}{Bonev\ \BOthers {.}}{{\APACyear {2012}}}}
\bibcite{bosch2013}{\citeauthoryear {Bosch}{Bosch}{{\APACyear {2013}}}}
\APACbibcite{bosch2013}{\citeauthoryear {Bosch}{Bosch}{{\APACyear {2013}}}}
\bibcite{bouma2009normalized}{\citeauthoryear {Bouma}{Bouma}{{\APACyear {2009}}}}
\APACbibcite{bouma2009normalized}{\citeauthoryear {Bouma}{Bouma}{{\APACyear {2009}}}}
\bibcite{cagampan2015}{\citeauthoryear {Cagampan}{Cagampan}{{\APACyear {2015}}}}
\APACbibcite{cagampan2015}{\citeauthoryear {Cagampan}{Cagampan}{{\APACyear {2015}}}}
\bibcite{church1990word}{\citeauthoryear {Church\ \BBA{} Hanks}{Church\ \BBA{} Hanks}{{\APACyear {1990}}}}
\APACbibcite{church1990word}{\citeauthoryear {Church\ \BBA{} Hanks}{Church\ \BBA{} Hanks}{{\APACyear {1990}}}}
\@writefile{toc}{\contentsline {chapter}{References}{157}}
\bibcite{cortes1995support}{\citeauthoryear {Cortes\ \BBA{} Vapnik}{Cortes\ \BBA{} Vapnik}{{\APACyear {1995}}}}
\APACbibcite{cortes1995support}{\citeauthoryear {Cortes\ \BBA{} Vapnik}{Cortes\ \BBA{} Vapnik}{{\APACyear {1995}}}}
\bibcite{das2007yahoo}{\citeauthoryear {Das\ \BBA{} Chen}{Das\ \BBA{} Chen}{{\APACyear {2007}}}}
\APACbibcite{das2007yahoo}{\citeauthoryear {Das\ \BBA{} Chen}{Das\ \BBA{} Chen}{{\APACyear {2007}}}}
\bibcite{de2011natural}{\citeauthoryear {De\nobreakspace  {}Kok\ \BBA{} Brouwer}{De\nobreakspace  {}Kok\ \BBA{} Brouwer}{{\APACyear {2011}}}}
\APACbibcite{de2011natural}{\citeauthoryear {De\nobreakspace  {}Kok\ \BBA{} Brouwer}{De\nobreakspace  {}Kok\ \BBA{} Brouwer}{{\APACyear {2011}}}}
\bibcite{ding2008holistic}{\citeauthoryear {Ding, Liu,{}\ \BBA{} Yu}{Ding\ \BOthers {.}}{{\APACyear {2008}}}}
\APACbibcite{ding2008holistic}{\citeauthoryear {Ding, Liu,{}\ \BBA{} Yu}{Ding\ \BOthers {.}}{{\APACyear {2008}}}}
\bibcite{dvzeroski2004combining}{\citeauthoryear {D{\v {z}}eroski\ \BBA{} {\v {Z}}enko}{D{\v {z}}eroski\ \BBA{} {\v {Z}}enko}{{\APACyear {2004}}}}
\APACbibcite{dvzeroski2004combining}{\citeauthoryear {D{\v {z}}eroski\ \BBA{} {\v {Z}}enko}{D{\v {z}}eroski\ \BBA{} {\v {Z}}enko}{{\APACyear {2004}}}}
\bibcite{engstrom}{\citeauthoryear {Engstrom}{Engstrom}{{\APACyear {2011}}}}
\APACbibcite{engstrom}{\citeauthoryear {Engstrom}{Engstrom}{{\APACyear {2011}}}}
\bibcite{esuli2006sentiwordnet}{\citeauthoryear {Esuli\ \BBA{} Sebastiani}{Esuli\ \BBA{} Sebastiani}{{\APACyear {2006}}}}
\APACbibcite{esuli2006sentiwordnet}{\citeauthoryear {Esuli\ \BBA{} Sebastiani}{Esuli\ \BBA{} Sebastiani}{{\APACyear {2006}}}}
\bibcite{fano1961transmission}{\citeauthoryear {Fano\ \BBA{} Hawkins}{Fano\ \BBA{} Hawkins}{{\APACyear {1961}}}}
\APACbibcite{fano1961transmission}{\citeauthoryear {Fano\ \BBA{} Hawkins}{Fano\ \BBA{} Hawkins}{{\APACyear {1961}}}}
\bibcite{c}{\citeauthoryear {Fleiss}{Fleiss}{{\APACyear {1971}}}}
\APACbibcite{c}{\citeauthoryear {Fleiss}{Fleiss}{{\APACyear {1971}}}}
\bibcite{gamallo2014citius}{\citeauthoryear {Gamallo\ \BBA{} Garcia}{Gamallo\ \BBA{} Garcia}{{\APACyear {2014}}{\APACexlab {{\BCnt {1}}}}}}
\APACbibcite{gamallo2014citius}{\citeauthoryear {Gamallo\ \BBA{} Garcia}{Gamallo\ \BBA{} Garcia}{{\APACyear {2014}}{\APACexlab {{\BCnt {1}}}}}}
\bibcite{gamallo-garcia2014}{\citeauthoryear {Gamallo\ \BBA{} Garcia}{Gamallo\ \BBA{} Garcia}{{\APACyear {2014}}{\APACexlab {{\BCnt {2}}}}}}
\APACbibcite{gamallo-garcia2014}{\citeauthoryear {Gamallo\ \BBA{} Garcia}{Gamallo\ \BBA{} Garcia}{{\APACyear {2014}}{\APACexlab {{\BCnt {2}}}}}}
\bibcite{ghiassi2013twitter}{\citeauthoryear {Ghiassi, Skinner,{}\ \BBA{} Zimbra}{Ghiassi\ \BOthers {.}}{{\APACyear {2013}}}}
\APACbibcite{ghiassi2013twitter}{\citeauthoryear {Ghiassi, Skinner,{}\ \BBA{} Zimbra}{Ghiassi\ \BOthers {.}}{{\APACyear {2013}}}}
\bibcite{goldberg1988genetic}{\citeauthoryear {Goldberg\ \BBA{} Holland}{Goldberg\ \BBA{} Holland}{{\APACyear {1988}}}}
\APACbibcite{goldberg1988genetic}{\citeauthoryear {Goldberg\ \BBA{} Holland}{Goldberg\ \BBA{} Holland}{{\APACyear {1988}}}}
\bibcite{gritzalis2015nereus}{\citeauthoryear {Gritzalis, Kandias,{}\ \BBA{} Stavrou}{Gritzalis\ \BOthers {.}}{{\APACyear {2015}}}}
\APACbibcite{gritzalis2015nereus}{\citeauthoryear {Gritzalis, Kandias,{}\ \BBA{} Stavrou}{Gritzalis\ \BOthers {.}}{{\APACyear {2015}}}}
\bibcite{halliday2014introduction}{\citeauthoryear {Halliday, Matthiessen,{}\ \BBA{} Matthiessen}{Halliday\ \BOthers {.}}{{\APACyear {1985}}}}
\APACbibcite{halliday2014introduction}{\citeauthoryear {Halliday, Matthiessen,{}\ \BBA{} Matthiessen}{Halliday\ \BOthers {.}}{{\APACyear {1985}}}}
\bibcite{hu2004mining}{\citeauthoryear {Hu\ \BBA{} Liu}{Hu\ \BBA{} Liu}{{\APACyear {2004}}}}
\APACbibcite{hu2004mining}{\citeauthoryear {Hu\ \BBA{} Liu}{Hu\ \BBA{} Liu}{{\APACyear {2004}}}}
\bibcite{jain1996artificial}{\citeauthoryear {Jain, Mao,{}\ \BBA{} Mohiuddin}{Jain\ \BOthers {.}}{{\APACyear {1996}}}}
\APACbibcite{jain1996artificial}{\citeauthoryear {Jain, Mao,{}\ \BBA{} Mohiuddin}{Jain\ \BOthers {.}}{{\APACyear {1996}}}}
\bibcite{jiang2011target}{\citeauthoryear {Jiang, Yu, Zhou, Liu,{}\ \BBA{} Zhao}{Jiang\ \BOthers {.}}{{\APACyear {{\bibnodate {}}}}}}
\APACbibcite{jiang2011target}{\citeauthoryear {Jiang, Yu, Zhou, Liu,{}\ \BBA{} Zhao}{Jiang\ \BOthers {.}}{{\APACyear {{\bibnodate {}}}}}}
\bibcite{jindal2006mining}{\citeauthoryear {Jindal\ \BBA{} Liu}{Jindal\ \BBA{} Liu}{{\APACyear {2006}}}}
\APACbibcite{jindal2006mining}{\citeauthoryear {Jindal\ \BBA{} Liu}{Jindal\ \BBA{} Liu}{{\APACyear {2006}}}}
\bibcite{kennedy2006sentiment}{\citeauthoryear {Kennedy\ \BBA{} Inkpen}{Kennedy\ \BBA{} Inkpen}{{\APACyear {2006}}}}
\APACbibcite{kennedy2006sentiment}{\citeauthoryear {Kennedy\ \BBA{} Inkpen}{Kennedy\ \BBA{} Inkpen}{{\APACyear {2006}}}}
\bibcite{kittler1998combining}{\citeauthoryear {Kittler, Hatef, Duin,{}\ \BBA{} Matas}{Kittler\ \BOthers {.}}{{\APACyear {1998}}}}
\APACbibcite{kittler1998combining}{\citeauthoryear {Kittler, Hatef, Duin,{}\ \BBA{} Matas}{Kittler\ \BOthers {.}}{{\APACyear {1998}}}}
\bibcite{kotouse}{\citeauthoryear {Koto\ \BBA{} Adriani}{Koto\ \BBA{} Adriani}{{\APACyear {2015}}}}
\APACbibcite{kotouse}{\citeauthoryear {Koto\ \BBA{} Adriani}{Koto\ \BBA{} Adriani}{{\APACyear {2015}}}}
\bibcite{krallinger2015chemdner}{\citeauthoryear {Krallinger\ \BOthers {.}}{Krallinger\ \BOthers {.}}{{\APACyear {2015}}}}
\APACbibcite{krallinger2015chemdner}{\citeauthoryear {Krallinger\ \BOthers {.}}{Krallinger\ \BOthers {.}}{{\APACyear {2015}}}}
\bibcite{langley2011changing}{\citeauthoryear {Langley}{Langley}{{\APACyear {2011}}}}
\APACbibcite{langley2011changing}{\citeauthoryear {Langley}{Langley}{{\APACyear {2011}}}}
\bibcite{le2010empirical}{\citeauthoryear {Le-Hong, Roussanaly, Nguyen,{}\ \BBA{} Rossignol}{Le-Hong\ \BOthers {.}}{{\APACyear {2010}}}}
\APACbibcite{le2010empirical}{\citeauthoryear {Le-Hong, Roussanaly, Nguyen,{}\ \BBA{} Rossignol}{Le-Hong\ \BOthers {.}}{{\APACyear {2010}}}}
\bibcite{leung2007}{\citeauthoryear {Leung}{Leung}{{\APACyear {2007}}}}
\APACbibcite{leung2007}{\citeauthoryear {Leung}{Leung}{{\APACyear {2007}}}}
\bibcite{li2007sentiment}{\citeauthoryear {Li, Zong,{}\ \BBA{} Wang}{Li\ \BOthers {.}}{{\APACyear {2007}}}}
\APACbibcite{li2007sentiment}{\citeauthoryear {Li, Zong,{}\ \BBA{} Wang}{Li\ \BOthers {.}}{{\APACyear {2007}}}}
\bibcite{liu2006web}{\citeauthoryear {Liu}{Liu}{{\APACyear {2006}}}}
\APACbibcite{liu2006web}{\citeauthoryear {Liu}{Liu}{{\APACyear {2006}}}}
\bibcite{liu2010sentiment}{\citeauthoryear {Liu}{Liu}{{\APACyear {2010}}}}
\APACbibcite{liu2010sentiment}{\citeauthoryear {Liu}{Liu}{{\APACyear {2010}}}}
\bibcite{liu2011web}{\citeauthoryear {Liu}{Liu}{{\APACyear {2011}}}}
\APACbibcite{liu2011web}{\citeauthoryear {Liu}{Liu}{{\APACyear {2011}}}}
\bibcite{liu2012sentiment}{\citeauthoryear {Liu}{Liu}{{\APACyear {2012}}}}
\APACbibcite{liu2012sentiment}{\citeauthoryear {Liu}{Liu}{{\APACyear {2012}}}}
\bibcite{luhn1957statistical}{\citeauthoryear {Luhn}{Luhn}{{\APACyear {1957}}}}
\APACbibcite{luhn1957statistical}{\citeauthoryear {Luhn}{Luhn}{{\APACyear {1957}}}}
\bibcite{mike2010sentiment}{\citeauthoryear {Mike, Kevan, Georgios, Di,{}\ \BBA{} Arvid}{Mike\ \BOthers {.}}{{\APACyear {2010}}}}
\APACbibcite{mike2010sentiment}{\citeauthoryear {Mike, Kevan, Georgios, Di,{}\ \BBA{} Arvid}{Mike\ \BOthers {.}}{{\APACyear {2010}}}}
\bibcite{mikolov2014}{\citeauthoryear {Mikolov}{Mikolov}{{\APACyear {2014}}}}
\APACbibcite{mikolov2014}{\citeauthoryear {Mikolov}{Mikolov}{{\APACyear {2014}}}}
\bibcite{miller1995wordnet}{\citeauthoryear {Miller}{Miller}{{\APACyear {1995}}}}
\APACbibcite{miller1995wordnet}{\citeauthoryear {Miller}{Miller}{{\APACyear {1995}}}}
\bibcite{nagao1994new}{\citeauthoryear {Nagao\ \BBA{} Mori}{Nagao\ \BBA{} Mori}{{\APACyear {1994}}}}
\APACbibcite{nagao1994new}{\citeauthoryear {Nagao\ \BBA{} Mori}{Nagao\ \BBA{} Mori}{{\APACyear {1994}}}}
\bibcite{nasukawa2003sentiment}{\citeauthoryear {Nasukawa\ \BBA{} Yi}{Nasukawa\ \BBA{} Yi}{{\APACyear {2003}}}}
\APACbibcite{nasukawa2003sentiment}{\citeauthoryear {Nasukawa\ \BBA{} Yi}{Nasukawa\ \BBA{} Yi}{{\APACyear {2003}}}}
\bibcite{nielsen2011new}{\citeauthoryear {Nielsen}{Nielsen}{{\APACyear {2011}}}}
\APACbibcite{nielsen2011new}{\citeauthoryear {Nielsen}{Nielsen}{{\APACyear {2011}}}}
\bibcite{omar2013ensemble}{\citeauthoryear {Omar, Albared, Al-Shabi,{}\ \BBA{} Al-Moslmi}{Omar\ \BOthers {.}}{{\APACyear {2013}}}}
\APACbibcite{omar2013ensemble}{\citeauthoryear {Omar, Albared, Al-Shabi,{}\ \BBA{} Al-Moslmi}{Omar\ \BOthers {.}}{{\APACyear {2013}}}}
\bibcite{ozgur2005text}{\citeauthoryear {{\"O}zg{\"u}r, {\"O}zg{\"u}r,{}\ \BBA{} G{\"u}ng{\"o}r}{{\"O}zg{\"u}r\ \BOthers {.}}{{\APACyear {2005}}}}
\APACbibcite{ozgur2005text}{\citeauthoryear {{\"O}zg{\"u}r, {\"O}zg{\"u}r,{}\ \BBA{} G{\"u}ng{\"o}r}{{\"O}zg{\"u}r\ \BOthers {.}}{{\APACyear {2005}}}}
\bibcite{pajkossy2013studying}{\citeauthoryear {Pajkossy}{Pajkossy}{{\APACyear {2013}}}}
\APACbibcite{pajkossy2013studying}{\citeauthoryear {Pajkossy}{Pajkossy}{{\APACyear {2013}}}}
\bibcite{pak2010twitter}{\citeauthoryear {Pak\ \BBA{} Paroubek}{Pak\ \BBA{} Paroubek}{{\APACyear {2010}}}}
\APACbibcite{pak2010twitter}{\citeauthoryear {Pak\ \BBA{} Paroubek}{Pak\ \BBA{} Paroubek}{{\APACyear {2010}}}}
\bibcite{pang2002thumbs}{\citeauthoryear {Pang, Lee,{}\ \BBA{} Vaithyanathan}{Pang\ \BOthers {.}}{{\APACyear {2002}}}}
\APACbibcite{pang2002thumbs}{\citeauthoryear {Pang, Lee,{}\ \BBA{} Vaithyanathan}{Pang\ \BOthers {.}}{{\APACyear {2002}}}}
\bibcite{patacsil2015}{\citeauthoryear {Patacsil\ \BBA{} Fernandez}{Patacsil\ \BBA{} Fernandez}{{\APACyear {2015}}}}
\APACbibcite{patacsil2015}{\citeauthoryear {Patacsil\ \BBA{} Fernandez}{Patacsil\ \BBA{} Fernandez}{{\APACyear {2015}}}}
\bibcite{polanyi2006contextual}{\citeauthoryear {Polanyi\ \BBA{} Zaenen}{Polanyi\ \BBA{} Zaenen}{{\APACyear {2006}}}}
\APACbibcite{polanyi2006contextual}{\citeauthoryear {Polanyi\ \BBA{} Zaenen}{Polanyi\ \BBA{} Zaenen}{{\APACyear {2006}}}}
\bibcite{quinlan1986induction}{\citeauthoryear {Quinlan}{Quinlan}{{\APACyear {1986}}}}
\APACbibcite{quinlan1986induction}{\citeauthoryear {Quinlan}{Quinlan}{{\APACyear {1986}}}}
\bibcite{rabo2004tpost}{\citeauthoryear {Rabo}{Rabo}{{\APACyear {2004}}}}
\APACbibcite{rabo2004tpost}{\citeauthoryear {Rabo}{Rabo}{{\APACyear {2004}}}}
\bibcite{ruta2005classifier}{\citeauthoryear {Ruta\ \BBA{} Gabrys}{Ruta\ \BBA{} Gabrys}{{\APACyear {2005}}}}
\APACbibcite{ruta2005classifier}{\citeauthoryear {Ruta\ \BBA{} Gabrys}{Ruta\ \BBA{} Gabrys}{{\APACyear {2005}}}}
\bibcite{saggionalpha2010interpreting}{\citeauthoryear {Saggion$\alpha $\ \BBA{} Funk}{Saggion$\alpha $\ \BBA{} Funk}{{\APACyear {2010}}}}
\APACbibcite{saggionalpha2010interpreting}{\citeauthoryear {Saggion$\alpha $\ \BBA{} Funk}{Saggion$\alpha $\ \BBA{} Funk}{{\APACyear {2010}}}}
\bibcite{salton1989automatic}{\citeauthoryear {Salton}{Salton}{{\APACyear {1989}}}}
\APACbibcite{salton1989automatic}{\citeauthoryear {Salton}{Salton}{{\APACyear {1989}}}}
\bibcite{schapirecos}{\citeauthoryear {Schapire}{Schapire}{{\APACyear {2008}}}}
\APACbibcite{schapirecos}{\citeauthoryear {Schapire}{Schapire}{{\APACyear {2008}}}}
\bibcite{confMat2014}{\citeauthoryear {School}{School}{{\APACyear {2014}}}}
\APACbibcite{confMat2014}{\citeauthoryear {School}{School}{{\APACyear {2014}}}}
\bibcite{sparck1972statistical}{\citeauthoryear {Sparck\nobreakspace  {}Jones}{Sparck\nobreakspace  {}Jones}{{\APACyear {1972}}}}
\APACbibcite{sparck1972statistical}{\citeauthoryear {Sparck\nobreakspace  {}Jones}{Sparck\nobreakspace  {}Jones}{{\APACyear {1972}}}}
\bibcite{taboada2011lexicon}{\citeauthoryear {Taboada, Brooke, Tofiloski, Voll,{}\ \BBA{} Stede}{Taboada\ \BOthers {.}}{{\APACyear {2011}}}}
\APACbibcite{taboada2011lexicon}{\citeauthoryear {Taboada, Brooke, Tofiloski, Voll,{}\ \BBA{} Stede}{Taboada\ \BOthers {.}}{{\APACyear {2011}}}}
\bibcite{tan2008empirical}{\citeauthoryear {Tan\ \BBA{} Zhang}{Tan\ \BBA{} Zhang}{{\APACyear {2008}}}}
\APACbibcite{tan2008empirical}{\citeauthoryear {Tan\ \BBA{} Zhang}{Tan\ \BBA{} Zhang}{{\APACyear {2008}}}}
\bibcite{tokunaga1994text}{\citeauthoryear {Tokunaga\ \BBA{} Makoto}{Tokunaga\ \BBA{} Makoto}{{\APACyear {1994}}}}
\APACbibcite{tokunaga1994text}{\citeauthoryear {Tokunaga\ \BBA{} Makoto}{Tokunaga\ \BBA{} Makoto}{{\APACyear {1994}}}}
\bibcite{toutanova2003feature}{\citeauthoryear {Toutanova, Klein, Manning,{}\ \BBA{} Singer}{Toutanova\ \BOthers {.}}{{\APACyear {2003}}}}
\APACbibcite{toutanova2003feature}{\citeauthoryear {Toutanova, Klein, Manning,{}\ \BBA{} Singer}{Toutanova\ \BOthers {.}}{{\APACyear {2003}}}}
\bibcite{tulyakov2008review}{\citeauthoryear {Tulyakov, Jaeger, Govindaraju,{}\ \BBA{} Doermann}{Tulyakov\ \BOthers {.}}{{\APACyear {2008}}}}
\APACbibcite{tulyakov2008review}{\citeauthoryear {Tulyakov, Jaeger, Govindaraju,{}\ \BBA{} Doermann}{Tulyakov\ \BOthers {.}}{{\APACyear {2008}}}}
\bibcite{turney2002thumbs}{\citeauthoryear {Turney}{Turney}{{\APACyear {2002}}}}
\APACbibcite{turney2002thumbs}{\citeauthoryear {Turney}{Turney}{{\APACyear {2002}}}}
\bibcite{wiebe2000learning}{\citeauthoryear {J.\nobreakspace  {}Wiebe}{J.\nobreakspace  {}Wiebe}{{\APACyear {2000}}}}
\APACbibcite{wiebe2000learning}{\citeauthoryear {J.\nobreakspace  {}Wiebe}{J.\nobreakspace  {}Wiebe}{{\APACyear {2000}}}}
\bibcite{wiebe2005annotating}{\citeauthoryear {J.\nobreakspace  {}Wiebe, Wilson,{}\ \BBA{} Cardie}{J.\nobreakspace  {}Wiebe\ \BOthers {.}}{{\APACyear {2005}}}}
\APACbibcite{wiebe2005annotating}{\citeauthoryear {J.\nobreakspace  {}Wiebe, Wilson,{}\ \BBA{} Cardie}{J.\nobreakspace  {}Wiebe\ \BOthers {.}}{{\APACyear {2005}}}}
\bibcite{wiebe1999development}{\citeauthoryear {J\BPBI  M.\nobreakspace  {}Wiebe, Bruce,{}\ \BBA{} O'Hara}{J\BPBI  M.\nobreakspace  {}Wiebe\ \BOthers {.}}{{\APACyear {1999}}}}
\APACbibcite{wiebe1999development}{\citeauthoryear {J\BPBI  M.\nobreakspace  {}Wiebe, Bruce,{}\ \BBA{} O'Hara}{J\BPBI  M.\nobreakspace  {}Wiebe\ \BOthers {.}}{{\APACyear {1999}}}}
\bibcite{yourganov2014predictive}{\citeauthoryear {Yourganov}{Yourganov}{{\APACyear {2014}}}}
\APACbibcite{yourganov2014predictive}{\citeauthoryear {Yourganov}{Yourganov}{{\APACyear {2014}}}}
\bibcite{zagibalov2008automatic}{\citeauthoryear {Zagibalov\ \BBA{} Carroll}{Zagibalov\ \BBA{} Carroll}{{\APACyear {2008}}}}
\APACbibcite{zagibalov2008automatic}{\citeauthoryear {Zagibalov\ \BBA{} Carroll}{Zagibalov\ \BBA{} Carroll}{{\APACyear {2008}}}}
\bibcite{zhou2002ensembling}{\citeauthoryear {Zhou, Wu,{}\ \BBA{} Tang}{Zhou\ \BOthers {.}}{{\APACyear {2002}}}}
\APACbibcite{zhou2002ensembling}{\citeauthoryear {Zhou, Wu,{}\ \BBA{} Tang}{Zhou\ \BOthers {.}}{{\APACyear {2002}}}}
