This is BibTeX, Version 0.99dThe top-level auxiliary file: main.aux
The style file: apacite.bst
A level-1 auxiliary file: abstract.aux
A level-1 auxiliary file: chapter_1.aux
A level-1 auxiliary file: chapter_2.aux
A level-1 auxiliary file: chapter_3.aux
A level-1 auxiliary file: chapter_4.aux
A level-1 auxiliary file: chapter_5.aux
A level-1 auxiliary file: chapter_6.aux
A level-1 auxiliary file: appendix_A.aux
Database file #1: myreferences.bib
I was expecting a `,' or a `}'---line 526 of file myreferences.bib
 :   
 :   pages={151--160},
(Error may have been on previous line)
I'm skipping whatever remains of this entry
Repeated entry---line 634 of file myreferences.bib
 : @article{balahur2009rethinking
 :                               ,
I'm skipping whatever remains of this entry
Repeated entry---line 688 of file myreferences.bib
 : @article{goldberg1988genetic
 :                             ,
I'm skipping whatever remains of this entry
apacite.bst [2013/07/21 v6.03 APA bibliography style]
Warning--No journal in gritzalis2015nereus
Warning--No journal in kotouse
Warning--No school in yourganov2014predictive
(There were 3 error messages)
